{
  "project_info": {
    "project_number": "110541968294",
    "firebase_url": "https://stochos-30758.firebaseio.com",
    "project_id": "stochos-30758",
    "storage_bucket": "stochos-30758.appspot.com"
  },
  "client": [
    {
      "client_info": {
        "mobilesdk_app_id": "1:110541968294:android:58e020850d0b4ec5",
        "android_client_info": {
          "package_name": "scla.com.stochos_android"
        }
      },
      "oauth_client": [
        {
          "client_id": "110541968294-li611l896e478o5o115k67l1a00u82oi.apps.googleusercontent.com",
          "client_type": 1,
          "android_info": {
            "package_name": "scla.com.stochos_android",
            "certificate_hash": "E4C0E2476C112CDF6A3B3018D65D5F0D94EEC381"
          }
        },
        {
          "client_id": "110541968294-hppgem40o3dheqask5f5ld0ln4ih1t5p.apps.googleusercontent.com",
          "client_type": 3
        }
      ],
      "api_key": [
        {
          "current_key": "AIzaSyCiAsQBNXTJ7dcuzEdWyaJHp3OlJ-X3iEI"
        }
      ],
      "services": {
        "analytics_service": {
          "status": 1
        },
        "appinvite_service": {
          "status": 2,
          "other_platform_oauth_client": [
            {
              "client_id": "110541968294-hppgem40o3dheqask5f5ld0ln4ih1t5p.apps.googleusercontent.com",
              "client_type": 3
            }
          ]
        },
        "ads_service": {
          "status": 2
        }
      }
    }
  ],
  "configuration_version": "1"
}